<svg width="13" height="8" viewBox="0 0 13 8" fill="none" xmlns="http://www.w3.org/2000/svg">
<rect x="6.5" y="7.86401" width="9" height="2" transform="rotate(-135 6.5 7.86401)" fill="#9BA3A9"/>
<rect x="5.08582" y="6.44971" width="9" height="2" transform="rotate(-45 5.08582 6.44971)" fill="#9BA3A9"/>
</svg>
