{
  "glass": [
    { "index": 0, "id": "hardened" },
    { "index": 1, "id": "hardened_gray" },
    { "index": 2, "id": "hardened_fritts" }
  ],
  "cloth": [
    { "index": 0, "id": "fabric01" },
    { "index": 1, "id": "fabric02" },
    { "index": 2, "id": "fabric03" },
    { "index": 3, "id": "fabric04" },
    { "index": 4, "id": "fabric05" },
    { "index": 5, "id": "fabric06" },
    { "index": 6, "id": "fabric07" },
    { "index": 7, "id": "fabric08" },
    { "index": 8, "id": "fabric09" },
    { "index": 9, "id": "fabric10" },
    { "index": 10, "id": "fabric11" },
    { "index": 11, "id": "fabric12" },
    { "index": 12, "id": "fabric13" },
    { "index": 13, "id": "fabric14" },
    { "index": 14, "id": "fabric15" }
  ],
  "veneer": [
    { "index": 0, "id": "veneer01" },
    { "index": 1, "id": "veneer02" },
    { "index": 2, "id": "veneer03" },
    { "index": 3, "id": "veneer04" },
    { "index": 4, "id": "veneer05" },
    { "index": 5, "id": "veneer06" },
    { "index": 6, "id": "veneer07" }
  ],
  "plasticMain": [
    { "index": 0, "id": "plastic_main01" },
    { "index": 1, "id": "plastic_main02" },
    { "index": 2, "id": "plastic_main03" },
    { "index": 3, "id": "plastic_main04" },
    { "index": 4, "id": "plastic_main05" },
    { "index": 5, "id": "plastic_main06" },
    { "index": 6, "id": "plastic_main07" },
    { "index": 7, "id": "plastic_main08" },
    { "index": 8, "id": "plastic_main09" }
  ],
  "plasticTable": [
    { "index": 0, "id": "plastic_table01" },
    { "index": 1, "id": "plastic_table02" },
    { "index": 2, "id": "plastic_table03" },
    { "index": 3, "id": "plastic_table04" },
    { "index": 4, "id": "plastic_table05" },
    { "index": 5, "id": "plastic_table06" },
    { "index": 6, "id": "plastic_table07" },
    { "index": 7, "id": "plastic_table08" },
    { "index": 8, "id": "plastic_table09" }
  ],
  "chair": [
    { "index": 0, "id": "chair_01" },
    { "index": 1, "id": "chair_02" },
    { "index": 2, "id": "chair_03" },
    { "index": 3, "id": "chair_04" },
    { "index": 4, "id": "chair_05" },
    { "index": 5, "id": "chair_off" }
  ],
  "doorlock": [
    { "index": 0, "id": "lock_standart" },
    { "index": 1, "id": "lock_standart_key" }
  ],
  "facing": [
    { "index": 0, "id": "plastic_main01_default" },
    { "index": 1, "id": "veneer01_default" },
    { "index": 2, "id": "exterior_main_RGB_default" },
    { "index": 3, "id": "veneer_birch_main" }
  ],
  "interior": [
    { "index": 0, "id": "fabric09_default" },
    { "index": 1, "id": "perforated" }
  ],
  "table": [
    { "index": 0, "id": "plastic_table01_default" },
    { "index": 1, "id": "table_RGB_default" },
    { "index": 2, "id": "veneer_birch_table" }
  ],
  "speak": [
    { "index": 0, "id": "jabra_off" },
    { "index": 1, "id": "jabra_off" }
  ],
  "smartglass": [
    { "index": 0, "id": "smart" },
    { "index": 1, "id": "smart" }
  ],
  "charger": [
    { "index": 0, "id": "charging_place" },
    { "index": 1, "id": "charging_place" }
  ]
}
