{
  "glass": [
    { "index": 0, "name": "Прозрачное стекло" },
    { "index": 1, "name": "Серое тонированное в массе" },
    { "index": 2, "name": "Прозрачное стекло с фриттами" }
  ],
  "cloth": [
    { "index": 0, "name": "Madagaskar 08" },
    { "index": 1, "name": "Romeo 11" },
    { "index": 2, "name": "Romeo 09" },
    { "index": 3, "name": "Kiton 11" },
    { "index": 4, "name": "Madagaskar 06" },
    { "index": 5, "name": "Romeo 10" },
    { "index": 6, "name": "Romeo 13" },
    { "index": 7, "name": "Kiton 06" },
    { "index": 8, "name": "Madagaskar 02" },
    { "index": 9, "name": "Kiton 01" },
    { "index": 10, "name": "Kiton 04" },
    { "index": 11, "name": "Madagaskar 09" },
    { "index": 12, "name": "Kiton 08" },
    { "index": 13, "name": "Kiton 13" },
    { "index": 14, "name": "Kiton 14" }
  ],
  "veneer": [
    { "index": 0, "name": "Шпон Бокоте" },
    { "index": 1, "name": "Шпон Орех сатиновый" },
    { "index": 2, "name": "Шпон Берёза" },
    { "index": 3, "name": "Дуб белый Swirl" },
    { "index": 4, "name": "Мультишпон TABU STVL.00.583" },
    { "index": 5, "name": "Мультишпон TABU RR2.00.218" },
    { "index": 6, "name": "Мультишпон TABU MN.00.411" }
  ],
  "plasticMain": [
    { "index": 0, "name": "Дуб Небраска натуральный" },
    { "index": 1, "name": "Гикори натуральный" },
    { "index": 2, "name": "Дуб Гамильтон натуральный" },
    { "index": 3, "name": "Макассар мокка" },
    { "index": 4, "name": "Дуб Гладстоун табак" },
    { "index": 5, "name": "Дуб Галифакс табак" },
    { "index": 6, "name": "Вяз Тоссини серо-бежевый" },
    { "index": 7, "name": "Ясень Наварра" },
    { "index": 8, "name": "Сосна Пасадена" }
  ],
  "plasticTable": [
    { "index": 0, "name": "Дуб Небраска натуральный" },
    { "index": 1, "name": "Гикори натуральный" },
    { "index": 2, "name": "Дуб Гамильтон натуральный" },
    { "index": 3, "name": "Макассар мокка" },
    { "index": 4, "name": "Дуб Гладстоун табак" },
    { "index": 5, "name": "Дуб Галифакс табак" },
    { "index": 6, "name": "Вяз Тоссини серо-бежевый" },
    { "index": 7, "name": "Ясень Наварра" },
    { "index": 8, "name": "Сосна Пасадена" }
  ],
  "chair": [
    { "index": 0, "name": "Mickey Profim" },
    { "index": 1, "name": "Quick II Koenig-neurath" },
    { "index": 2, "name": "Spin Bejot" },
    { "index": 3, "name": "wilkhahn stitz 2" },
    { "index": 4, "name": "Stand-up Wilkhahn" },
    { "index": 5, "name": "Без стула" }
  ],
  "doorlock": [
    { "index": 0, "name": "Стандартный без ключа" },
    { "index": 1, "name": "Стандартный с ключом" }
  ],
  "facing": [
    { "index": 0, "name": "Пластик" },
    { "index": 1, "name": "Шпоны" },
    { "index": 2, "name": "Цвет" },
    { "index": 3, "name": "Берёзовая фанера" }
  ],
  "interior": [
    { "index": 0, "name": "Ткань" },
    { "index": 1, "name": "Перфорированная панель" }
  ],
  "table": [
    { "index": 0, "name": "Пластик" },
    { "index": 1, "name": "Цвет" },
    { "index": 2, "name": "Берёзовая фанера" }
  ],
  "speak": [
    { "index": 0, "name": "Нет" },
    { "index": 1, "name": "Есть" }
  ],
  "smartglass": [
    { "index": 0, "name": "Нет" },
    { "index": 1, "name": "Есть" }
  ],
  "charger": [
    { "index": 0, "name": "Нет" },
    { "index": 1, "name": "Есть" }
  ],
  "default": {
    "title": "Заголовок",
    "return": "вернуться на сайт",
    "configurator": "Конфигуратор",
    "exterior": "Экстерьер",
    "cladding": "Облицовка",
    "frame": "Дверная рама",
    "grillOut": "Внешняя решётка",
    "interiorMain": "Интерьер",
    "interior": "Внутренняя отделка",
    "table": "Облицовки столика",
    "bracketTable": "Кронштейн столика",
    "chair": "Стул",
    "doorstep": "Порог",
    "grillIn": "Решетка",
    "doorglass": "Дверь и стекло",
    "glass": "Стекло",
    "door": "Дверь",
    "speak": "Спикерфон",
    "speakText": "Спикерфон — это переговорное устройство громкой связи, состоящее из разнонаправленных микрофонов, динамика, системы шумо- и эхоподавления, а также внешних интерфейсов. Применяется для организации групповых аудио- и видеоконференций.",
    "cost": "Итого",
    "add": "Дополнительные опции",
    "buy": "заказать",
    "consultation": "Получите консультацию и комерческое предложение",
    "name": "Ваше имя",
    "phone": "Телефон",
    "addinfo": "Доболнительная информация",
    "get": "получить",
    "press": "Нажимая \"Получить\", вы даете согласие на обработку персональных данных",
    "conf": "Конфигурация и стоимость",
    "right": "всё верно",
    "offer": "* Не является публичной офертой",

    "ordersend": "Заказ отправлен",
    "enterName": "Введите имя",
    "enterEmail": "Введите email",
    "enterPhone": "Введите телефон",
    "enterValidPhone": "Введите корректный телефон",
    "enterValidEmail": "Введите корректную почту",
    "er": "Ошибка",
    "hiddenRolls": "Скрытые ролики",
    "hiddenRollsText": "Для перемещения кабины по офису предусмотрены незаметные ролики. Специальный механизм регулировки уровня позволяет надёжно установить кабину даже на неровной поверхности.",
    "magneticAdjacency": "Магнитное примыкание дверей",
    "magneticAdjacencyText": "Примыкание двери на основе магнитной фиксации обеспечивает удобство закрывания и улучшает звукоизоляцию.",

    "chargerText": "Беспроводная зарядка по технологии WPC предполагает наличие в телефоне и зарядном устройстве индукционных катушек: одна выступает в роли приемника, другая — в роли передатчика электричества. Когда зарядку подключают к электросети, в ней возникает напряжение, а вокруг ее катушки-передатчика — магнитное поле.",
    "charger": "Беспроводная зарядка",
    "smartglassText": "У́мное стекло́ — композит из слоев стекла и различных химических материалов, используемый в архитектуре и производстве для изготовления светопрозрачных конструкций, изменяющий свои оптические свойства при изменении внешних условий, например, освещённости, температуры или при подаче электрического напряжения."
  }
}
