<svg width="88" height="24" viewBox="0 0 88 24" fill="none" xmlns="http://www.w3.org/2000/svg">
<path d="M5.44291 21.2283C1.8212 21.2283 0 19.3601 0 15.5824V6.09732C0 2.23757 1.88329 0.28717 5.64986 0.28717H11.0514C14.9421 0.28717 16.9082 2.21704 16.9082 6.09732V15.5824C16.9082 18.5388 15.7493 20.3455 13.4728 20.9614L15.3353 24H11.755L10.058 21.2283H5.44291ZM13.5969 6.85695C13.5969 5.07079 13.183 3.92108 12.3966 3.40781C11.6102 2.89455 10.4305 2.81243 8.42306 2.81243C6.4156 2.81243 5.09109 2.9972 4.51161 3.36675C3.93214 3.7363 3.31128 5.02973 3.31128 6.85695V14.946C3.31128 16.6295 3.72519 17.6971 4.553 18.1693C5.38082 18.6415 6.43629 18.7236 8.42306 18.7236C10.4098 18.7236 11.7136 18.5388 12.3138 18.1693C12.914 17.7997 13.5969 16.5884 13.5969 14.946V6.85695Z" fill="white"/>
<path d="M33.1955 17.3277C33.1955 18.888 32.6367 19.9556 31.5192 20.4894C30.7466 20.8589 29.422 21.0437 27.5457 21.0437H25.4554C23.579 21.0437 22.2545 20.8589 21.4819 20.4894C20.3643 19.9556 19.8055 18.888 19.8055 17.3277V6.28223H23.1168V16.4859C23.1168 17.3277 23.3859 17.9231 23.9446 18.2515C24.5034 18.58 24.9587 18.539 25.8693 18.539H27.1317C28.0837 18.539 28.746 18.4363 29.1185 18.2105C29.491 17.9846 29.8842 17.3277 29.8842 16.4859V6.28223H33.1955V17.3277Z" fill="white"/>
<path d="M48.1583 6.56991C49.2345 7.12423 49.7725 8.17129 49.7725 9.75214V17.3484C49.7725 18.9293 49.2552 19.9969 48.2411 20.5307C47.227 21.0645 46.2957 21.085 44.5573 21.085H41.3288C39.7145 21.085 38.4935 20.8592 37.7071 20.428C36.9206 19.9969 36.1135 18.8266 36.1135 17.3484V0.267029H39.4248V6.38513C39.6731 6.13877 40.294 6.01558 41.3288 6.01558H44.5573C46.2543 6.01558 47.4546 6.20036 48.1583 6.56991ZM46.4199 10.5528C46.4199 9.69055 46.1508 9.1157 45.6334 8.82827C45.1161 8.54084 44.5987 8.49978 43.6674 8.49978H42.1773C41.2253 8.49978 40.5837 8.60243 40.2112 8.82827C39.8387 9.05411 39.4248 9.69055 39.4248 10.5528V16.5067C39.4248 17.369 39.6938 17.9438 40.2319 18.2518C40.77 18.5598 41.2667 18.5803 42.1773 18.5803H43.6674C44.5987 18.5803 45.2609 18.4571 45.6334 18.2518C46.006 18.0465 46.4199 17.369 46.4199 16.5067V10.5528Z" fill="white"/>
<path d="M52.7734 3.10005V-6.10352e-05H56.1054V3.10005H52.7734ZM52.7734 20.8179V6.426H56.1054V20.8179H52.7734Z" fill="white"/>
<path d="M72.5171 17.3277C72.5171 18.888 71.9583 19.9556 70.8408 20.4894C70.075 20.8589 68.7298 21.0437 66.8466 21.0437H64.777C62.873 21.0437 61.5485 20.8589 60.7828 20.4894C59.6652 19.9556 59.1064 18.888 59.1064 17.3277V6.28223H62.4177V16.4859C62.4177 17.3277 62.6868 17.9231 63.2455 18.2515C63.8043 18.58 64.2596 18.539 65.1702 18.539H66.4533C67.3846 18.539 68.0469 18.4363 68.4194 18.2105C68.7919 17.9846 69.2058 17.3277 69.2058 16.4859V6.28223H72.5171V17.3277Z" fill="white"/>
<path d="M86.859 20.1404C86.1085 20.752 85.16 21.0729 84.1892 21.0438H78.9947C78.0312 21.0609 77.0953 20.7246 76.3664 20.0994C76.0027 19.8179 75.7103 19.4559 75.5127 19.0424C75.3151 18.6289 75.2176 18.1753 75.2281 17.7178V16.6092H78.5808V17.5125C78.5808 18.149 78.974 18.4569 79.7604 18.4569H83.6098C84.3134 18.4569 84.6859 18.1284 84.6859 17.4304V15.5826C84.6859 14.9462 84.2927 14.6177 83.527 14.6177H78.9947C78.0351 14.633 77.1021 14.305 76.3664 13.6938C75.9998 13.4103 75.7057 13.045 75.508 12.6277C75.3102 12.2104 75.2143 11.7527 75.2281 11.2918V9.25924C75.2208 8.80223 75.3197 8.34969 75.5171 7.93669C75.7145 7.52369 76.0051 7.16133 76.3664 6.87769C77.1021 6.26651 78.0351 5.93855 78.9947 5.95382H84.1892C85.1544 5.94267 86.0925 6.26985 86.8383 6.87769C87.2022 7.1603 87.4959 7.52195 87.6968 7.93482C87.8977 8.34769 88.0005 8.80078 87.9972 9.25924V10.2242H84.6859V9.48507C84.6859 8.84863 84.2927 8.52014 83.527 8.52014H79.6983C78.9533 8.52014 78.5808 8.86916 78.5808 9.5672V11.0865C78.5808 11.7229 78.974 12.0309 79.7604 12.0309H84.1892C85.1499 12.0303 86.0801 12.3646 86.8176 12.9753C87.1889 13.2525 87.4891 13.6125 87.6941 14.0263C87.899 14.44 88.0029 14.8958 87.9972 15.3568V17.7178C88.0177 18.1827 87.9249 18.6455 87.7268 19.0673C87.5287 19.489 87.231 19.8571 86.859 20.1404Z" fill="white"/>
</svg>
